…
#### **Understand the nature of missing data**

``` r
missing_table <- miss_var_summary(data)
missing_table
```

```
## # A tibble: 1,316 x 3
##    variable n_miss pct_miss
##    <chr>     <int>    <num>
##  1 PUMFID        0        0
##  2 WGHT_PER      0        0
##  3 AGEC          0        0
##  4 AGEDC         0        0
##  5 AGEGR5        0        0
##  6 AGEGR10       0        0
##  7 SEX           0        0
##  8 MARSTAT       0        0
##  9 SEXPR         0        0
## 10 PRTYPEC       0        0
## # i 1,306 more rows
```
…
